docs/simproc_system_tb_files/dump.vcd
$date
	Wed Oct 29 15:52:23 2025
$end
$version
	Icarus Verilog
$end
$timescale
	1s
$end
$scope module tb_simproc_system_single $end
$var wire 1 ! uart_tx $end
$var parameter 32 " CLK_BITS $end
$var parameter 32 # CLK_PERIOD $end
$var reg 1 $ clk $end
$var reg 10 % clk_per_bit [9:0] $end
$var reg 1 & rst $end
$var reg 1 ' uart_rx $end
$scope module DUT $end
$var wire 1 $ clk $end
$var wire 10 ( clk_per_bit [9:0] $end
$var wire 1 & rst $end
$var wire 1 ' uart_rx $end
$var wire 1 ! uart_tx $end
$var wire 1 ) tx_done $end
$var wire 1 * tx_busy $end
$var wire 1 + rx_done $end
$var wire 8 , rx_data [7:0] $end
$var wire 8 - pc_val [7:0] $end
$var wire 1 . mem_we $end
$var wire 8 / mem_dout [7:0] $end
$var wire 8 0 mem_din [7:0] $end
$var wire 8 1 mem_addr [7:0] $end
$var wire 1 2 halt $end
$var wire 8 3 dout_b [7:0] $end
$var wire 1 4 done $end
$var parameter 32 5 CLK_BITS $end
$var reg 8 6 addr_b [7:0] $end
$var reg 8 7 addr_byte [7:0] $end
$var reg 8 8 cmd_byte [7:0] $end
$var reg 8 9 data_byte [7:0] $end
$var reg 8 : din_b [7:0] $end
$var reg 8 ; pc_set_val [7:0] $end
$var reg 1 < pc_set_wr $end
$var reg 1 = run $end
$var reg 1 > run_reg $end
$var reg 1 ? step_pulse $end
$var reg 8 @ tx_buffer [7:0] $end
$var reg 8 A tx_data [7:0] $end
$var reg 1 B tx_en $end
$var reg 3 C uart_curr_state [2:0] $end
$var reg 3 D uart_next_state [2:0] $end
$var reg 1 E we_b $end
$scope module CPU1 $end
$var wire 1 $ clk $end
$var wire 8 F pc_set_val [7:0] $end
$var wire 1 < pc_set_wr $end
$var wire 1 & rst $end
$var wire 1 = run $end
$var wire 8 G rf_data_b_out [7:0] $end
$var wire 8 H rf_data_a_out [7:0] $end
$var wire 8 I pc_out [7:0] $end
$var wire 8 J mem_dout [7:0] $end
$var wire 1 K alu_z $end
$var wire 8 L alu_out [7:0] $end
$var wire 1 M alu_n $end
$var reg 1 N ab_load $end
$var reg 8 O alu_in_a [7:0] $end
$var reg 8 P alu_in_b [7:0] $end
$var reg 3 Q alu_op [2:0] $end
$var reg 1 R alu_out_load $end
$var reg 8 S alu_reg_in [7:0] $end
$var reg 8 T alu_reg_out [7:0] $end
$var reg 3 U curr_state [2:0] $end
$var reg 1 4 done $end
$var reg 1 V flag_wr $end
$var reg 1 2 halt $end
$var reg 8 W instr_reg_in [7:0] $end
$var reg 8 X instr_reg_out [7:0] $end
$var reg 1 Y ir_load $end
$var reg 8 Z mdr_in [7:0] $end
$var reg 1 [ mdr_load $end
$var reg 8 \ mdr_out [7:0] $end
$var reg 8 ] mem_addr [7:0] $end
$var reg 8 ^ mem_din [7:0] $end
$var reg 1 . mem_we $end
$var reg 1 _ n_flag_in $end
$var reg 1 ` n_flag_out $end
$var reg 3 a next_state [2:0] $end
$var reg 8 b pc_in [7:0] $end
$var reg 8 c pc_val [7:0] $end
$var reg 1 d pc_wr $end
$var reg 8 e reg_a_in [7:0] $end
$var reg 8 f reg_a_out [7:0] $end
$var reg 8 g reg_b_in [7:0] $end
$var reg 8 h reg_b_out [7:0] $end
$var reg 8 i rf_data_w_in [7:0] $end
$var reg 2 j rf_reg_a_in [1:0] $end
$var reg 2 k rf_reg_b_in [1:0] $end
$var reg 2 l rf_reg_w_in [1:0] $end
$var reg 1 m rf_write $end
$var reg 1 n z_flag_in $end
$var reg 1 o z_flag_out $end
$scope module ALU1 $end
$var wire 8 p A [7:0] $end
$var wire 3 q ALUop [2:0] $end
$var wire 8 r B [7:0] $end
$var wire 1 K Z $end
$var wire 1 M N $end
$var reg 8 s ALUout [7:0] $end
$upscope $end
$scope module PC1 $end
$var wire 1 $ clk $end
$var wire 8 t pc_in [7:0] $end
$var wire 1 d pc_wr $end
$var wire 1 & rst $end
$var reg 8 u pc_out [7:0] $end
$upscope $end
$scope module RF1 $end
$var wire 1 m RFWrite $end
$var wire 1 $ clk $end
$var wire 8 v dataW [7:0] $end
$var wire 2 w regA [1:0] $end
$var wire 2 x regB [1:0] $end
$var wire 2 y regW [1:0] $end
$var wire 1 & rst $end
$var reg 8 z dataA [7:0] $end
$var reg 8 { dataB [7:0] $end
$upscope $end
$upscope $end
$scope module RAM1 $end
$var wire 8 | addr_a [7:0] $end
$var wire 8 } addr_b [7:0] $end
$var wire 1 $ clk $end
$var wire 8 ~ din_a [7:0] $end
$var wire 8 !" din_b [7:0] $end
$var wire 1 . we_a $end
$var wire 1 E we_b $end
$var parameter 32 "" DATA_WIDTH $end
$var parameter 32 #" MEM_DEPTH $end
$var reg 8 $" dout_a [7:0] $end
$var reg 8 %" dout_b [7:0] $end
$upscope $end
$scope module UART1 $end
$var wire 1 ' RX_dataIn $end
$var wire 8 &" TX_dataIn [7:0] $end
$var wire 1 B TX_en $end
$var wire 1 $ clk $end
$var wire 10 '" clk_per_bit [9:0] $end
$var wire 1 & rst $end
$var wire 1 ! TX_out $end
$var wire 1 ) TX_done $end
$var wire 1 * TX_busy $end
$var wire 1 (" RX_parityError $end
$var wire 1 + RX_done $end
$var wire 8 )" RX_dataOut [7:0] $end
$var parameter 32 *" CLK_BITS $end
$var parameter 32 +" DATA_WIDTH $end
$var parameter 32 ," PARITY_BITS $end
$var parameter 32 -" STOP_BITS $end
$scope module UART_RX1 $end
$var wire 1 $ clk $end
$var wire 10 ." clk_per_bit [9:0] $end
$var wire 1 ' dataIn $end
$var wire 1 & rst $end
$var parameter 32 /" CLK_BITS $end
$var parameter 32 0" DATA_WIDTH $end
$var parameter 35 1" PACKET_SIZE $end
$var parameter 32 2" PARITY_BITS $end
$var parameter 32 3" STOP_BITS $end
$var parameter 32 4" indexBits $end
$var reg 1 + RXdone $end
$var reg 8 5" RXout [7:0] $end
$var reg 10 6" clkCount [9:0] $end
$var reg 1 7" dataDone $end
$var reg 8 8" dataOut [7:0] $end
$var reg 4 9" index [3:0] $end
$var reg 1 :" parity $end
$var reg 1 (" parityError $end
$var reg 1 ;" regIn $end
$var reg 1 <" regInMeta $end
$var reg 2 =" state [1:0] $end
$upscope $end
$scope module UART_TX1 $end
$var wire 1 B TXen $end
$var wire 1 $ clk $end
$var wire 10 >" clk_per_bit [9:0] $end
$var wire 8 ?" dataIn [7:0] $end
$var wire 1 & rst $end
$var parameter 32 @" CLK_BITS $end
$var parameter 32 A" DATA_WIDTH $end
$var parameter 35 B" PACKET_SIZE $end
$var parameter 32 C" PARITY_BITS $end
$var parameter 32 D" STOP_BITS $end
$var parameter 32 E" indexBits $end
$var reg 1 ) TXdone $end
$var reg 1 ! TXout $end
$var reg 1 * busy $end
$var reg 10 F" clkCount [9:0] $end
$var reg 4 G" index [3:0] $end
$var reg 10 H" packet [9:0] $end
$var reg 1 I" parityBit $end
$var reg 2 J" state [1:0] $end
$upscope $end
$upscope $end
$upscope $end
$scope task uart_send_byte $end
$var reg 8 K" data [7:0] $end
$var integer 32 L" i [31:0] $end
$upscope $end
$upscope $end
$enddefinitions $end
$comment Show the parameter values. $end
$dumpall
b100 E"
b1 D"
b0 C"
b1010 B"
b1000 A"
b1010 @"
b100 4"
b1 3"
b0 2"
b1010 1"
b1000 0"
b1010 /"
b1 -"
b0 ,"
b1000 +"
b1010 *"
b100000000 #"
b1000 ""
b1010 5
b1010 #
b1010 "
$end
#0
$dumpvars
bx L"
bx K"
bx J"
0I"
bx H"
bx G"
bx F"
b0 ?"
b10000 >"
bx ="
x<"
x;"
x:"
bx 9"
bx 8"
x7"
bx 6"
bx 5"
b10000 ."
bx )"
0("
b10000 '"
b0 &"
bx %"
bx $"
b0 !"
b0 ~
b0 }
b0 |
bx {
bx z
b0 y
b0 x
b0 w
b0 v
bx u
b0 t
b0 s
b0 r
b0 q
b0 p
xo
1n
0m
b0 l
b0 k
b0 j
b0 i
bx h
bx g
bx f
bx e
0d
bx c
b0 b
b0 a
x`
0_
b0 ^
b0 ]
bx \
0[
bx Z
0Y
bx X
bx W
0V
bx U
bx T
b0 S
0R
b0 Q
b0 P
b0 O
0N
0M
b0 L
1K
bx J
bx I
bx H
bx G
bx F
0E
b0 D
bx C
0B
b0 A
bx @
x?
x>
x=
0<
bx ;
b0 :
bx 9
bx 8
bx 7
b0 6
04
bx 3
02
b0 1
b0 0
bx /
0.
bx -
bx ,
x+
x*
x)
b10000 (
1'
1&
b10000 %
0$
x!
$end
#5
b0 g
b0 e
b0 G
b0 {
b0 H
b0 z
b0 -
b0 c
0+
12
b1 D
b0 I
b0 u
0o
0`
b0 T
b0 h
b0 f
b0 \
b0 X
b0 U
0)
b0 F"
b0 G"
0*
b0 J"
1!
1<"
07"
b0 6"
b0 9"
b0 ="
b0 8"
0?
0>
0=
b0 ;
b0 F
b0 9
b0 7
b0 8
b0 C
1$
#10
0$
#15
1;"
1$
#20
0$
#25
1$
#30
0$
#35
1$
#40
0$
#45
1$
#50
0$
#55
1$
#60
0$
#65
1$
#70
0$
#75
1$
#80
0$
#85
1$
#90
0$
#95
1$
#100
0$
0&
#105
b1 C
1$
#110
0$
#115
1$
#120
0$
0'
b11110000 K"
#125
0<"
1$
#130
0$
#135
0;"
1$
#140
0$
#145
b1 ="
1$
#150
0$
#155
b1 6"
1$
#160
0$
#165
b10 6"
1$
#170
0$
#175
b11 6"
1$
#180
0$
#185
b100 6"
1$
#190
0$
#195
b101 6"
1$
#200
0$
#205
b110 6"
1$
#210
0$
#215
b111 6"
1$
#220
0$
#225
b10 ="
b0 6"
1$
#230
0$
#235
b1 6"
1$
#240
0$
#245
b10 6"
1$
#250
0$
#255
b11 6"
1$
#260
0$
#265
b100 6"
1$
#270
0$
#275
b101 6"
1$
#280
0$
b0 L"
#285
b110 6"
1$
#290
0$
#295
b111 6"
1$
#300
0$
#305
b1000 6"
1$
#310
0$
#315
b1001 6"
1$
#320
0$
#325
b1010 6"
1$
#330
0$
#335
b1011 6"
1$
#340
0$
#345
b1100 6"
1$
#350
0$
#355
b1101 6"
1$
#360
0$
#365
b1110 6"
1$
#370
0$
#375
b1111 6"
1$
#380
0$
#385
b1 9"
b0 6"
1$
#390
0$
#395
b1 6"
1$
#400
0$
#405
b10 6"
1$
#410
0$
#415
b11 6"
1$
#420
0$
#425
b100 6"
1$
#430
0$
#435
b101 6"
1$
#440
0$
b1 L"
#445
b110 6"
1$
#450
0$
#455
b111 6"
1$
#460
0$
#465
b1000 6"
1$
#470
0$
#475
b1001 6"
1$
#480
0$
#485
b1010 6"
1$
#490
0$
#495
b1011 6"
1$
#500
0$
#505
b1100 6"
1$
#510
0$
#515
b1101 6"
1$
#520
0$
#525
b1110 6"
1$
#530
0$
#535
b1111 6"
1$
#540
0$
#545
b10 9"
b0 6"
1$
#550
0$
#555
b1 6"
1$
#560
0$
#565
b10 6"
1$
#570
0$
#575
b11 6"
1$
#580
0$
#585
b100 6"
1$
#590
0$
#595
b101 6"
1$
#600
0$
b10 L"
#605
b110 6"
1$
#610
0$
#615
b111 6"
1$
#620
0$
#625
b1000 6"
1$
#630
0$
#635
b1001 6"
1$
#640
0$
#645
b1010 6"
1$
#650
0$
#655
b1011 6"
1$
#660
0$
#665
b1100 6"
1$
#670
0$
#675
b1101 6"
1$
#680
0$
#685
b1110 6"
1$
#690
0$
#695
b1111 6"
1$
#700
0$
#705
b11 9"
b0 6"
1$
#710
0$
#715
b1 6"
1$
#720
0$
#725
b10 6"
1$
#730
0$
#735
b11 6"
1$
#740
0$
#745
b100 6"
1$
#750
0$
#755
b101 6"
1$
#760
0$
b11 L"
#765
b110 6"
1$
#770
0$
#775
b111 6"
1$
#780
0$
#785
b1000 6"
1$
#790
0$
#795
b1001 6"
1$
#800
0$
#805
b1010 6"
1$
#810
0$
#815
b1011 6"
1$
#820
0$
#825
b1100 6"
1$
#830
0$
#835
b1101 6"
1$
#840
0$
#845
b1110 6"
1$
#850
0$
#855
b1111 6"
1$
#860
0$
#865
b100 9"
b0 6"
1$
#870
0$
#875
b1 6"
1$
#880
0$
#885
b10 6"
1$
#890
0$
#895
b11 6"
1$
#900
0$
#905
b100 6"
1$
#910
0$
#915
b101 6"
1$
#920
0$
1'
b100 L"
#925
1<"
b110 6"
1$
#930
0$
#935
b111 6"
1;"
1$
#940
0$
#945
b1000 6"
1$
#950
0$
#955
b1001 6"
1$
#960
0$
#965
b1010 6"
1$
#970
0$
#975
b1011 6"
1$
#980
0$
#985
b1100 6"
1$
#990
0$
#995
b1101 6"
1$
#1000
0$
#1005
b1110 6"
1$
#1010
0$
#1015
b1111 6"
1$
#1020
0$
#1025
b101 9"
b10000 8"
b0 6"
1$
#1030
0$
#1035
b1 6"
1$
#1040
0$
#1045
b10 6"
1$
#1050
0$
#1055
b11 6"
1$
#1060
0$
#1065
b100 6"
1$
#1070
0$
#1075
b101 6"
1$
#1080
0$
b101 L"
#1085
b110 6"
1$
#1090
0$
#1095
b111 6"
1$
#1100
0$
#1105
b1000 6"
1$
#1110
0$
#1115
b1001 6"
1$
#1120
0$
#1125
b1010 6"
1$
#1130
0$
#1135
b1011 6"
1$
#1140
0$
#1145
b1100 6"
1$
#1150
0$
#1155
b1101 6"
1$
#1160
0$
#1165
b1110 6"
1$
#1170
0$
#1175
b1111 6"
1$
#1180
0$
#1185
b110 9"
b110000 8"
b0 6"
1$
#1190
0$
#1195
b1 6"
1$
#1200
0$
#1205
b10 6"
1$
#1210
0$
#1215
b11 6"
1$
#1220
0$
#1225
b100 6"
1$
#1230
0$
#1235
b101 6"
1$
#1240
0$
b110 L"
#1245
b110 6"
1$
#1250
0$
#1255
b111 6"
1$
#1260
0$
#1265
b1000 6"
1$
#1270
0$
#1275
b1001 6"
1$
#1280
0$
#1285
b1010 6"
1$
#1290
0$
#1295
b1011 6"
1$
#1300
0$
#1305
b1100 6"
1$
#1310
0$
#1315
b1101 6"
1$
#1320
0$
#1325
b1110 6"
1$
#1330
0$
#1335
b1111 6"
1$
#1340
0$
#1345
b111 9"
b1110000 8"
b0 6"
1$
#1350
0$
#1355
b1 6"
1$
#1360
0$
#1365
b10 6"
1$
#1370
0$
#1375
b11 6"
1$
#1380
0$
#1385
b100 6"
1$
#1390
0$
#1395
b101 6"
1$
#1400
0$
b111 L"
#1405
b110 6"
1$
#1410
0$
#1415
b111 6"
1$
#1420
0$
#1425
b1000 6"
1$
#1430
0$
#1435
b1001 6"
1$
#1440
0$
#1445
b1010 6"
1$
#1450
0$
#1455
b1011 6"
1$
#1460
0$
#1465
b1100 6"
1$
#1470
0$
#1475
b1101 6"
1$
#1480
0$
#1485
b1110 6"
1$
#1490
0$
#1495
b1111 6"
1$
#1500
0$
#1505
b1000 9"
b11110000 8"
b0 6"
1$
#1510
0$
#1515
b1 6"
1$
#1520
0$
#1525
b10 6"
1$
#1530
0$
#1535
b11 6"
1$
#1540
0$
#1545
b100 6"
1$
#1550
0$
#1555
b101 6"
1$
#1560
0$
b1000 L"
#1565
b110 6"
1$
#1570
0$
#1575
b111 6"
1$
#1580
0$
#1585
b1000 6"
1$
#1590
0$
#1595
b1001 6"
1$
#1600
0$
#1605
b1010 6"
1$
#1610
0$
#1615
b1011 6"
1$
#1620
0$
#1625
b1100 6"
1$
#1630
0$
#1635
b1101 6"
1$
#1640
0$
#1645
b1110 6"
1$
#1650
0$
#1655
b1111 6"
1$
#1660
0$
#1665
b11 ="
b0 6"
1$
#1670
0$
#1675
b1 6"
1$
#1680
0$
#1685
b10 6"
1$
#1690
0$
#1695
b11 6"
1$
#1700
0$
#1705
b100 6"
1$
#1710
0$
#1715
b101 6"
1$
#1720
0$
#1725
b110 6"
1$
#1730
0$
#1735
b111 6"
1$
#1740
0$
#1745
b1000 6"
1$
#1750
0$
#1755
b1001 6"
1$
#1760
0$
#1765
b1010 6"
1$
#1770
0$
#1775
b1011 6"
1$
#1780
0$
#1785
b1100 6"
1$
#1790
0$
#1795
b1101 6"
1$
#1800
0$
#1805
b1110 6"
1$
#1810
0$
#1815
b1111 6"
1$
#1820
0$
#1825
b10 D
1+
b11110000 ,
b11110000 )"
b11110000 5"
b0 9"
17"
b0 ="
b0 6"
1$
#1830
0$
#1835
0+
b11110000 8
b10 C
07"
b0 8"
1$
#1840
0$
#1845
1$
#1850
0$
#1855
1$
#1860
0$
#1865
1$
#1870
0$
#1875
1$
#1880
0$
0'
b0 K"
#1885
0<"
1$
#1890
0$
#1895
0;"
1$
#1900
0$
#1905
b1 ="
1$
#1910
0$
#1915
b1 6"
1$
#1920
0$
#1925
b10 6"
1$
#1930
0$
#1935
b11 6"
1$
#1940
0$
#1945
b100 6"
1$
#1950
0$
#1955
b101 6"
1$
#1960
0$
#1965
b110 6"
1$
#1970
0$
#1975
b111 6"
1$
#1980
0$
#1985
b10 ="
b0 6"
1$
#1990
0$
#1995
b1 6"
1$
#2000
0$
#2005
b10 6"
1$
#2010
0$
#2015
b11 6"
1$
#2020
0$
#2025
b100 6"
1$
#2030
0$
#2035
b101 6"
1$
#2040
0$
b0 L"
#2045
b110 6"
1$
#2050
0$
#2055
b111 6"
1$
#2060
0$
#2065
b1000 6"
1$
#2070
0$
#2075
b1001 6"
1$
#2080
0$
#2085
b1010 6"
1$
#2090
0$
#2095
b1011 6"
1$
#2100
0$
#2105
b1100 6"
1$
#2110
0$
#2115
b1101 6"
1$
#2120
0$
#2125
b1110 6"
1$
#2130
0$
#2135
b1111 6"
1$
#2140
0$
#2145
b1 9"
b0 6"
1$
#2150
0$
#2155
b1 6"
1$
#2160
0$
#2165
b10 6"
1$
#2170
0$
#2175
b11 6"
1$
#2180
0$
#2185
b100 6"
1$
#2190
0$
#2195
b101 6"
1$
#2200
0$
b1 L"
#2205
b110 6"
1$
#2210
0$
#2215
b111 6"
1$
#2220
0$
#2225
b1000 6"
1$
#2230
0$
#2235
b1001 6"
1$
#2240
0$
#2245
b1010 6"
1$
#2250
0$
#2255
b1011 6"
1$
#2260
0$
#2265
b1100 6"
1$
#2270
0$
#2275
b1101 6"
1$
#2280
0$
#2285
b1110 6"
1$
#2290
0$
#2295
b1111 6"
1$
#2300
0$
#2305
b10 9"
b0 6"
1$
#2310
0$
#2315
b1 6"
1$
#2320
0$
#2325
b10 6"
1$
#2330
0$
#2335
b11 6"
1$
#2340
0$
#2345
b100 6"
1$
#2350
0$
#2355
b101 6"
1$
#2360
0$
b10 L"
#2365
b110 6"
1$
#2370
0$
#2375
b111 6"
1$
#2380
0$
#2385
b1000 6"
1$
#2390
0$
#2395
b1001 6"
1$
#2400
0$
#2405
b1010 6"
1$
#2410
0$
#2415
b1011 6"
1$
#2420
0$
#2425
b1100 6"
1$
#2430
0$
#2435
b1101 6"
1$
#2440
0$
#2445
b1110 6"
1$
#2450
0$
#2455
b1111 6"
1$
#2460
0$
#2465
b11 9"
b0 6"
1$
#2470
0$
#2475
b1 6"
1$
#2480
0$
#2485
b10 6"
1$
#2490
0$
#2495
b11 6"
1$
#2500
0$
#2505
b100 6"
1$
#2510
0$
#2515
b101 6"
1$
#2520
0$
b11 L"
#2525
b110 6"
1$
#2530
0$
#2535
b111 6"
1$
#2540
0$
#2545
b1000 6"
1$
#2550
0$
#2555
b1001 6"
1$
#2560
0$
#2565
b1010 6"
1$
#2570
0$
#2575
b1011 6"
1$
#2580
0$
#2585
b1100 6"
1$
#2590
0$
#2595
b1101 6"
1$
#2600
0$
#2605
b1110 6"
1$
#2610
0$
#2615
b1111 6"
1$
#2620
0$
#2625
b100 9"
b0 6"
1$
#2630
0$
#2635
b1 6"
1$
#2640
0$
#2645
b10 6"
1$
#2650
0$
#2655
b11 6"
1$
#2660
0$
#2665
b100 6"
1$
#2670
0$
#2675
b101 6"
1$
#2680
0$
b100 L"
#2685
b110 6"
1$
#2690
0$
#2695
b111 6"
1$
#2700
0$
#2705
b1000 6"
1$
#2710
0$
#2715
b1001 6"
1$
#2720
0$
#2725
b1010 6"
1$
#2730
0$
#2735
b1011 6"
1$
#2740
0$
#2745
b1100 6"
1$
#2750
0$
#2755
b1101 6"
1$
#2760
0$
#2765
b1110 6"
1$
#2770
0$
#2775
b1111 6"
1$
#2780
0$
#2785
b101 9"
b0 6"
1$
#2790
0$
#2795
b1 6"
1$
#2800
0$
#2805
b10 6"
1$
#2810
0$
#2815
b11 6"
1$
#2820
0$
#2825
b100 6"
1$
#2830
0$
#2835
b101 6"
1$
#2840
0$
b101 L"
#2845
b110 6"
1$
#2850
0$
#2855
b111 6"
1$
#2860
0$
#2865
b1000 6"
1$
#2870
0$
#2875
b1001 6"
1$
#2880
0$
#2885
b1010 6"
1$
#2890
0$
#2895
b1011 6"
1$
#2900
0$
#2905
b1100 6"
1$
#2910
0$
#2915
b1101 6"
1$
#2920
0$
#2925
b1110 6"
1$
#2930
0$
#2935
b1111 6"
1$
#2940
0$
#2945
b110 9"
b0 6"
1$
#2950
0$
#2955
b1 6"
1$
#2960
0$
#2965
b10 6"
1$
#2970
0$
#2975
b11 6"
1$
#2980
0$
#2985
b100 6"
1$
#2990
0$
#2995
b101 6"
1$
#3000
0$
b110 L"
#3005
b110 6"
1$
#3010
0$
#3015
b111 6"
1$
#3020
0$
#3025
b1000 6"
1$
#3030
0$
#3035
b1001 6"
1$
#3040
0$
#3045
b1010 6"
1$
#3050
0$
#3055
b1011 6"
1$
#3060
0$
#3065
b1100 6"
1$
#3070
0$
#3075
b1101 6"
1$
#3080
0$
#3085
b1110 6"
1$
#3090
0$
#3095
b1111 6"
1$
#3100
0$
#3105
b111 9"
b0 6"
1$
#3110
0$
#3115
b1 6"
1$
#3120
0$
#3125
b10 6"
1$
#3130
0$
#3135
b11 6"
1$
#3140
0$
#3145
b100 6"
1$
#3150
0$
#3155
b101 6"
1$
#3160
0$
b111 L"
#3165
b110 6"
1$
#3170
0$
#3175
b111 6"
1$
#3180
0$
#3185
b1000 6"
1$
#3190
0$
#3195
b1001 6"
1$
#3200
0$
#3205
b1010 6"
1$
#3210
0$
#3215
b1011 6"
1$
#3220
0$
#3225
b1100 6"
1$
#3230
0$
#3235
b1101 6"
1$
#3240
0$
#3245
b1110 6"
1$
#3250
0$
#3255
b1111 6"
1$
#3260
0$
#3265
b1000 9"
b0 6"
1$
#3270
0$
#3275
b1 6"
1$
#3280
0$
#3285
b10 6"
1$
#3290
0$
#3295
b11 6"
1$
#3300
0$
#3305
b100 6"
1$
#3310
0$
#3315
b101 6"
1$
#3320
0$
1'
b1000 L"
#3325
1<"
b110 6"
1$
#3330
0$
#3335
b111 6"
1;"
1$
#3340
0$
#3345
b1000 6"
1$
#3350
0$
#3355
b1001 6"
1$
#3360
0$
#3365
b1010 6"
1$
#3370
0$
#3375
b1011 6"
1$
#3380
0$
#3385
b1100 6"
1$
#3390
0$
#3395
b1101 6"
1$
#3400
0$
#3405
b1110 6"
1$
#3410
0$
#3415
b1111 6"
1$
#3420
0$
#3425
b11 ="
b0 6"
1$
#3430
0$
#3435
b1 6"
1$
#3440
0$
#3445
b10 6"
1$
#3450
0$
#3455
b11 6"
1$
#3460
0$
#3465
b100 6"
1$
#3470
0$
#3475
b101 6"
1$
#3480
0$
#3485
b110 6"
1$
#3490
0$
#3495
b111 6"
1$
#3500
0$
#3505
b1000 6"
1$
#3510
0$
#3515
b1001 6"
1$
#3520
0$
#3525
b1010 6"
1$
#3530
0$
#3535
b1011 6"
1$
#3540
0$
#3545
b1100 6"
1$
#3550
0$
#3555
b1101 6"
1$
#3560
0$
#3565
b1110 6"
1$
#3570
0$
#3575
b1111 6"
1$
#3580
0$
#3585
b11 D
1+
b0 ,
b0 )"
b0 5"
b0 9"
17"
b0 ="
b0 6"
1$
#3590
0$
#3595
0+
b11 C
07"
1$
#3600
0$
#3605
1$
#3610
0$
#3615
1$
#3620
0$
#3625
1$
#3630
0$
#3635
1$
#3640
0$
0'
#3645
0<"
1$
#3650
0$
#3655
0;"
1$
#3660
0$
#3665
b1 ="
1$
#3670
0$
#3675
b1 6"
1$
#3680
0$
#3685
b10 6"
1$
#3690
0$
#3695
b11 6"
1$
#3700
0$
#3705
b100 6"
1$
#3710
0$
#3715
b101 6"
1$
#3720
0$
#3725
b110 6"
1$
#3730
0$
#3735
b111 6"
1$
#3740
0$
#3745
b10 ="
b0 6"
1$
#3750
0$
#3755
b1 6"
1$
#3760
0$
#3765
b10 6"
1$
#3770
0$
#3775
b11 6"
1$
#3780
0$
#3785
b100 6"
1$
#3790
0$
#3795
b101 6"
1$
#3800
0$
b0 L"
#3805
b110 6"
1$
#3810
0$
#3815
b111 6"
1$
#3820
0$
#3825
b1000 6"
1$
#3830
0$
#3835
b1001 6"
1$
#3840
0$
#3845
b1010 6"
1$
#3850
0$
#3855
b1011 6"
1$
#3860
0$
#3865
b1100 6"
1$
#3870
0$
#3875
b1101 6"
1$
#3880
0$
#3885
b1110 6"
1$
#3890
0$
#3895
b1111 6"
1$
#3900
0$
#3905
b1 9"
b0 6"
1$
#3910
0$
#3915
b1 6"
1$
#3920
0$
#3925
b10 6"
1$
#3930
0$
#3935
b11 6"
1$
#3940
0$
#3945
b100 6"
1$
#3950
0$
#3955
b101 6"
1$
#3960
0$
b1 L"
#3965
b110 6"
1$
#3970
0$
#3975
b111 6"
1$
#3980
0$
#3985
b1000 6"
1$
#3990
0$
#3995
b1001 6"
1$
#4000
0$
#4005
b1010 6"
1$
#4010
0$
#4015
b1011 6"
1$
#4020
0$
#4025
b1100 6"
1$
#4030
0$
#4035
b1101 6"
1$
#4040
0$
#4045
b1110 6"
1$
#4050
0$
#4055
b1111 6"
1$
#4060
0$
#4065
b10 9"
b0 6"
1$
#4070
0$
#4075
b1 6"
1$
#4080
0$
#4085
b10 6"
1$
#4090
0$
#4095
b11 6"
1$
#4100
0$
#4105
b100 6"
1$
#4110
0$
#4115
b101 6"
1$
#4120
0$
b10 L"
#4125
b110 6"
1$
#4130
0$
#4135
b111 6"
1$
#4140
0$
#4145
b1000 6"
1$
#4150
0$
#4155
b1001 6"
1$
#4160
0$
#4165
b1010 6"
1$
#4170
0$
#4175
b1011 6"
1$
#4180
0$
#4185
b1100 6"
1$
#4190
0$
#4195
b1101 6"
1$
#4200
0$
#4205
b1110 6"
1$
#4210
0$
#4215
b1111 6"
1$
#4220
0$
#4225
b11 9"
b0 6"
1$
#4230
0$
#4235
b1 6"
1$
#4240
0$
#4245
b10 6"
1$
#4250
0$
#4255
b11 6"
1$
#4260
0$
#4265
b100 6"
1$
#4270
0$
#4275
b101 6"
1$
#4280
0$
b11 L"
#4285
b110 6"
1$
#4290
0$
#4295
b111 6"
1$
#4300
0$
#4305
b1000 6"
1$
#4310
0$
#4315
b1001 6"
1$
#4320
0$
#4325
b1010 6"
1$
#4330
0$
#4335
b1011 6"
1$
#4340
0$
#4345
b1100 6"
1$
#4350
0$
#4355
b1101 6"
1$
#4360
0$
#4365
b1110 6"
1$
#4370
0$
#4375
b1111 6"
1$
#4380
0$
#4385
b100 9"
b0 6"
1$
#4390
0$
#4395
b1 6"
1$
#4400
0$
#4405
b10 6"
1$
#4410
0$
#4415
b11 6"
1$
#4420
0$
#4425
b100 6"
1$
#4430
0$
#4435
b101 6"
1$
#4440
0$
b100 L"
#4445
b110 6"
1$
#4450
0$
#4455
b111 6"
1$
#4460
0$
#4465
b1000 6"
1$
#4470
0$
#4475
b1001 6"
1$
#4480
0$
#4485
b1010 6"
1$
#4490
0$
#4495
b1011 6"
1$
#4500
0$
#4505
b1100 6"
1$
#4510
0$
#4515
b1101 6"
1$
#4520
0$
#4525
b1110 6"
1$
#4530
0$
#4535
b1111 6"
1$
#4540
0$
#4545
b101 9"
b0 6"
1$
#4550
0$
#4555
b1 6"
1$
#4560
0$
#4565
b10 6"
1$
#4570
0$
#4575
b11 6"
1$
#4580
0$
#4585
b100 6"
1$
#4590
0$
#4595
b101 6"
1$
#4600
0$
b101 L"
#4605
b110 6"
1$
#4610
0$
#4615
b111 6"
1$
#4620
0$
#4625
b1000 6"
1$
#4630
0$
#4635
b1001 6"
1$
#4640
0$
#4645
b1010 6"
1$
#4650
0$
#4655
b1011 6"
1$
#4660
0$
#4665
b1100 6"
1$
#4670
0$
#4675
b1101 6"
1$
#4680
0$
#4685
b1110 6"
1$
#4690
0$
#4695
b1111 6"
1$
#4700
0$
#4705
b110 9"
b0 6"
1$
#4710
0$
#4715
b1 6"
1$
#4720
0$
#4725
b10 6"
1$
#4730
0$
#4735
b11 6"
1$
#4740
0$
#4745
b100 6"
1$
#4750
0$
#4755
b101 6"
1$
#4760
0$
b110 L"
#4765
b110 6"
1$
#4770
0$
#4775
b111 6"
1$
#4780
0$
#4785
b1000 6"
1$
#4790
0$
#4795
b1001 6"
1$
#4800
0$
#4805
b1010 6"
1$
#4810
0$
#4815
b1011 6"
1$
#4820
0$
#4825
b1100 6"
1$
#4830
0$
#4835
b1101 6"
1$
#4840
0$
#4845
b1110 6"
1$
#4850
0$
#4855
b1111 6"
1$
#4860
0$
#4865
b111 9"
b0 6"
1$
#4870
0$
#4875
b1 6"
1$
#4880
0$
#4885
b10 6"
1$
#4890
0$
#4895
b11 6"
1$
#4900
0$
#4905
b100 6"
1$
#4910
0$
#4915
b101 6"
1$
#4920
0$
b111 L"
#4925
b110 6"
1$
#4930
0$
#4935
b111 6"
1$
#4940
0$
#4945
b1000 6"
1$
#4950
0$
#4955
b1001 6"
1$
#4960
0$
#4965
b1010 6"
1$
#4970
0$
#4975
b1011 6"
1$
#4980
0$
#4985
b1100 6"
1$
#4990
0$
#4995
b1101 6"
1$
#5000
0$
#5005
b1110 6"
1$
#5010
0$
#5015
b1111 6"
1$
#5020
0$
#5025
b1000 9"
b0 6"
1$
#5030
0$
#5035
b1 6"
1$
#5040
0$
